{
	"title": "Before I Go to Sleep",
	"releaseDate": "1999",
	"author": "Thomas Hood",
	"illustrator": "Mary Jane Begin",
	"publisher": "Little Brown and Company",
	"ageRange": [
		3,
		8
	],
	"desc": "On a summer evening, when it’s just too hot to sleep, a child amuses himself by imagining all the delightfully funny animals he would like to be. There’s a tap-dancing giraffe, a musical chimpanzee, a mountain goat in silly socks… the fun goes on and on until the boy – and young listeners – are finally ready for sleep. But before they drift off, children will enjoy looking for a special character who appears in each of the illustrations. Mary Jane Begin’s lustrous, brilliantly detailed illustrations illuminate the imaginative night-dreams in Thomas Hood’s classic nineteenth-century poem. Warm and playful, this reissue of a modern classic is just the book for bedtime snuggling.",
	"buy": "http://www.amazon.com/Before-Go-Sleep-Thomas-Hood/dp/0688124240/ref=la_B001H6UV46_1_7?s=books&ie=UTF8&qid=1392323798&sr=1-7",
	"spreads": [
		{
			"url": "1.jpg",
			"alt": "A frog teaching fish"
		},
		{
			"url": "2.jpg",
			"alt": "And then I'd be a wise old frog squatting on a sunken log, I'd teach the fishes lots of games and how to read and write their names."
		},
		{
			"url": "3.jpg",
			"alt": "A disguised fox"
		},
		{
			"url": "4.jpg",
			"alt": "And then I'd be a foxy fox streaking through the hollyhocks, horse or hound would ne'er catch me, I'm a master of disguise, you see."
		},
		{
			"url": "5.jpg",
			"alt": "A lion in pajamas eating bananas"
		},
		{
			"url": "6.jpg",
			"alt": "An Indian lion then I'd be, and lounge aboud on my settee; I'd feed on nothing but bananas and spend all day in my pajamas."
		}
	]
}
