{
	"title": "R is for Rhode Island Red",
	"releaseDate": "2006",
	"author": "Mark Allio",
	"illustrator": "Mary Jane Begin",
	"publisher": "Sleeping Bear Press",
	"ageRange": [
		3,
		8
	],
	"desc": "Our alphabet journey takes us next to the charming state of Rhode Island in R is for Rhode Island Red: A Rhode Island Alphabet. It may be our smallest state but its presence is unmistakable — rich in history, breathtaking beauty, and famous for its neighborhoods filled with character. With every turned page readers will be treated to Rhode Island’s incredible scenery and have their many questions answered about our thirteenth state. Rhode Island has how many miles of coastline? The breathtaking beauty of Block Island is one of the state’s how many islands? Readers will also learn how Rhode Island native Samuel Slater started the American Industrial Revolution, and what the quahog is.",
	"buy": "http://www.amazon.com/Rhode-Island-Red-Alphabet-Discover/dp/1585361496/ref=la_B001H6UV46_1_2?s=books&ie=UTF8&qid=1392323798&sr=1-2",
	"spreads": [
		{
			"url": "1.jpg",
			"alt": "N is for Narragansett. Jumping into the briny water, many fish abound: bass and dogfish and funny flounder. Any sharks around?"
		},
		{
			"url": "2.jpg",
			"alt": "S is for Samuel Slater. Slater Mill, that's where I am working that machine, spinning 15 hours or more. Next year I turn thirteen."
		},
		{
			"url": "3.jpg",
			"alt": "T is for Tasty Treats. Noontime came and it was time for lunch. Started me thinking about what I could munch. I stopped at a diner to see what they had. Hey those jonnycakes aren't looking too bad!"
		}
	]
}
