{
	"title": "Land + Seascapes",
	"desc": "With these paintings, my desire is to weave an open narrative that allows a viewer to explore how they feel when experiencing the color, light and space of each painting. My role as an artist is to discover new ways of engaging an audience, and in this series, expressing my own sense of wonder and curiosity about light, color and a place that fascinates me endlessly.",
	"images": [
		"flint_hills_train.jpg",
		"flint_hills.jpg",
		"home_on_the_r.jpg",
		"kansas.jpg",
		"prairie_vigil.jpg",
		"0.jpg",
		"1.jpg",
		"2.jpg",
		"3.jpg",
		"4.jpg",
		"5.jpg",
		"6.jpg",
		"7.jpg",
		"8.jpg",
		"9.jpg",
		"10.jpg",
		"11.jpg",
		"12.jpg"
	]
}
